[gd_scene load_steps=6 format=2]

[ext_resource path="res://Player.cs" type="Script" id=1]
[ext_resource path="res://Assets/Texture/TX Tileset Grass.png" type="Texture" id=2]
[ext_resource path="res://Assets/Home Made Bread/Player Icon .png" type="Texture" id=3]

[sub_resource type="TileSet" id=1]
0/name = "TX Tileset Grass.png 0"
0/texture = ExtResource( 2 )
0/tex_offset = Vector2( 0, 0 )
0/modulate = Color( 1, 1, 1, 1 )
0/region = Rect2( 0, 0, 32, 32 )
0/tile_mode = 0
0/occluder_offset = Vector2( 0, 0 )
0/navigation_offset = Vector2( 0, 0 )
0/shape_offset = Vector2( 0, 0 )
0/shape_transform = Transform2D( 1, 0, 0, 1, 0, 0 )
0/shape_one_way = false
0/shape_one_way_margin = 0.0
0/shapes = [  ]
0/z_index = 0
1/name = "TX Tileset Grass.png 1"
1/texture = ExtResource( 2 )
1/tex_offset = Vector2( 0, 0 )
1/modulate = Color( 1, 1, 1, 1 )
1/region = Rect2( 160, 0, 32, 32 )
1/tile_mode = 0
1/occluder_offset = Vector2( 0, 0 )
1/navigation_offset = Vector2( 0, 0 )
1/shape_offset = Vector2( 0, 0 )
1/shape_transform = Transform2D( 1, 0, 0, 1, 0, 0 )
1/shape_one_way = false
1/shape_one_way_margin = 0.0
1/shapes = [  ]
1/z_index = 0
2/name = "TX Tileset Grass.png 2"
2/texture = ExtResource( 2 )
2/tex_offset = Vector2( 0, 0 )
2/modulate = Color( 1, 1, 1, 1 )
2/region = Rect2( 160, 96, 64, 32 )
2/tile_mode = 0
2/occluder_offset = Vector2( 0, 0 )
2/navigation_offset = Vector2( 0, 0 )
2/shape_offset = Vector2( 0, 0 )
2/shape_transform = Transform2D( 1, 0, 0, 1, 0, 0 )
2/shape_one_way = false
2/shape_one_way_margin = 0.0
2/shapes = [  ]
2/z_index = 0
3/name = "TX Tileset Grass.png 3"
3/texture = ExtResource( 2 )
3/tex_offset = Vector2( 0, 0 )
3/modulate = Color( 1, 1, 1, 1 )
3/region = Rect2( 64, 160, 32, 32 )
3/tile_mode = 0
3/occluder_offset = Vector2( 0, 0 )
3/navigation_offset = Vector2( 0, 0 )
3/shape_offset = Vector2( 0, 0 )
3/shape_transform = Transform2D( 1, 0, 0, 1, 0, 0 )
3/shape_one_way = false
3/shape_one_way_margin = 0.0
3/shapes = [  ]
3/z_index = 0
4/name = "TX Tileset Grass.png 4"
4/texture = ExtResource( 2 )
4/tex_offset = Vector2( 0, 0 )
4/modulate = Color( 1, 1, 1, 1 )
4/region = Rect2( 64, 128, 32, 32 )
4/tile_mode = 0
4/occluder_offset = Vector2( 0, 0 )
4/navigation_offset = Vector2( 0, 0 )
4/shape_offset = Vector2( 0, 0 )
4/shape_transform = Transform2D( 1, 0, 0, 1, 0, 0 )
4/shape_one_way = false
4/shape_one_way_margin = 0.0
4/shapes = [  ]
4/z_index = 0
5/name = "TX Tileset Grass.png 5"
5/texture = ExtResource( 2 )
5/tex_offset = Vector2( 0, 0 )
5/modulate = Color( 1, 1, 1, 1 )
5/region = Rect2( 0, 128, 64, 64 )
5/tile_mode = 0
5/occluder_offset = Vector2( 0, 0 )
5/navigation_offset = Vector2( 0, 0 )
5/shape_offset = Vector2( 0, 0 )
5/shape_transform = Transform2D( 1, 0, 0, 1, 0, 0 )
5/shape_one_way = false
5/shape_one_way_margin = 0.0
5/shapes = [  ]
5/z_index = 0
6/name = "TX Tileset Grass.png 6"
6/texture = ExtResource( 2 )
6/tex_offset = Vector2( 0, 0 )
6/modulate = Color( 1, 1, 1, 1 )
6/region = Rect2( 128, 128, 32, 32 )
6/tile_mode = 0
6/occluder_offset = Vector2( 0, 0 )
6/navigation_offset = Vector2( 0, 0 )
6/shape_offset = Vector2( 0, 0 )
6/shape_transform = Transform2D( 1, 0, 0, 1, 0, 0 )
6/shape_one_way = false
6/shape_one_way_margin = 0.0
6/shapes = [  ]
6/z_index = 0
7/name = "TX Tileset Grass.png 7"
7/texture = ExtResource( 2 )
7/tex_offset = Vector2( 0, 0 )
7/modulate = Color( 1, 1, 1, 1 )
7/region = Rect2( 128, 160, 32, 32 )
7/tile_mode = 0
7/occluder_offset = Vector2( 0, 0 )
7/navigation_offset = Vector2( 0, 0 )
7/shape_offset = Vector2( 0, 0 )
7/shape_transform = Transform2D( 1, 0, 0, 1, 0, 0 )
7/shape_one_way = false
7/shape_one_way_margin = 0.0
7/shapes = [  ]
7/z_index = 0

[sub_resource type="RectangleShape2D" id=2]
extents = Vector2( 12, 15.5 )

[node name="Root" type="Node2D"]

[node name="TileMap" type="TileMap" parent="."]
tile_set = SubResource( 1 )
cell_size = Vector2( 32, 32 )
cell_quadrant_size = 32
format = 1
tile_data = PoolIntArray( 0, 7, 0, 1, 7, 0, 2, 7, 0, 3, 7, 0, 4, 7, 0, 5, 7, 0, 6, 7, 0, 7, 7, 0, 8, 7, 0, 9, 4, 0, 10, 1, 0, 11, 2, 0, 12, 1, 0, 13, 2, 0, 14, 2, 0, 15, 4, 0, 16, 2, 0, 17, 0, 0, 18, 6, 0, 19, 0, 0, 20, 5, 0, 21, 3, 0, 22, 5, 0, 23, 4, 0, 24, 7, 0, 25, 2, 0, 26, 6, 0, 27, 5, 0, 28, 6, 0, 29, 0, 0, 30, 0, 0, 31, 2, 0, 65536, 2, 0, 65538, 1, 0, 65539, 1, 0, 65540, 0, 0, 65541, 1, 0, 65542, 1, 0, 65543, 1, 0, 65544, 0, 0, 65545, 4, 0, 65546, 0, 0, 65547, 2, 0, 65548, 7, 0, 65549, 0, 0, 65550, 3, 0, 65551, 3, 0, 65552, 7, 0, 65553, 4, 0, 65554, 1, 0, 65555, 1, 0, 65556, 1, 0, 65557, 7, 0, 65558, 0, 0, 65559, 5, 0, 65560, 7, 0, 65561, 4, 0, 65562, 2, 0, 65563, 1, 0, 65564, 5, 0, 65565, 6, 0, 65566, 3, 0, 65567, 5, 0, 131072, 1, 0, 131073, 0, 0, 131074, 2, 0, 131075, 1, 0, 131076, 5, 0, 131077, 5, 0, 131078, 1, 0, 131079, 1, 0, 131080, 0, 0, 131081, 2, 0, 131082, 5, 0, 131083, 0, 0, 131084, 1, 0, 131085, 7, 0, 131086, 2, 0, 131087, 5, 0, 131088, 6, 0, 131089, 4, 0, 131090, 2, 0, 131091, 0, 0, 131092, 2, 0, 131093, 6, 0, 131094, 2, 0, 131095, 7, 0, 131096, 6, 0, 131097, 4, 0, 131098, 4, 0, 131099, 5, 0, 131100, 2, 0, 131101, 0, 0, 131102, 0, 0, 131103, 1, 0, 196608, 0, 0, 196609, 1, 0, 196610, 1, 0, 196611, 1, 0, 196612, 5, 0, 196613, 5, 0, 196614, 1, 0, 196615, 0, 0, 196616, 1, 0, 196617, 4, 0, 196618, 2, 0, 196619, 2, 0, 196620, 3, 0, 196621, 1, 0, 196622, 2, 0, 196624, 6, 0, 196625, 7, 0, 196626, 2, 0, 196627, 6, 0, 196628, 1, 0, 196629, 3, 0, 196630, 3, 0, 196631, 4, 0, 196632, 4, 0, 196633, 3, 0, 196634, 0, 0, 196635, 0, 0, 196636, 7, 0, 196637, 2, 0, 196638, 6, 0, 196639, 5, 0, 262144, 1, 0, 262145, 0, 0, 262146, 1, 0, 262147, 1, 0, 262148, 5, 0, 262149, 5, 0, 262150, 1, 0, 262151, 0, 0, 262152, 1, 0, 262153, 1, 0, 262154, 3, 0, 262155, 4, 0, 262156, 6, 0, 262157, 7, 0, 262158, 4, 0, 262159, 2, 0, 262160, 0, 0, 262161, 7, 0, 262162, 1, 0, 262163, 1, 0, 262164, 0, 0, 262165, 0, 0, 262166, 1, 0, 262167, 6, 0, 262168, 4, 0, 262169, 7, 0, 262170, 3, 0, 262171, 6, 0, 262172, 0, 0, 262173, 5, 0, 262174, 0, 0, 262175, 5, 0, 327680, 1, 0, 327681, 1, 0, 327682, 0, 0, 327683, 1, 0, 327684, 0, 0, 327685, 1, 0, 327686, 0, 0, 327687, 0, 0, 327688, 1, 0, 327689, 2, 0, 327690, 4, 0, 327691, 3, 0, 327692, 4, 0, 327693, 3, 0, 327694, 4, 0, 327695, 1, 0, 327696, 6, 0, 327697, 6, 0, 327698, 2, 0, 327699, 5, 0, 327700, 2, 0, 327701, 5, 0, 327702, 0, 0, 327703, 0, 0, 327704, 1, 0, 327705, 2, 0, 327706, 4, 0, 327707, 7, 0, 327708, 3, 0, 327709, 1, 0, 327710, 7, 0, 327711, 6, 0, 393216, 6, 0, 393217, 6, 0, 393218, 6, 0, 393219, 6, 0, 393220, 6, 0, 393221, 6, 0, 393222, 6, 0, 393223, 6, 0, 393224, 6, 0, 393225, 3, 0, 393226, 5, 0, 393227, 7, 0, 393228, 2, 0, 393229, 0, 0, 393230, 2, 0, 393231, 4, 0, 393232, 3, 0, 393233, 2, 0, 393234, 0, 0, 393235, 1, 0, 393236, 3, 0, 393237, 4, 0, 393238, 6, 0, 393239, 1, 0, 393240, 7, 0, 393241, 6, 0, 393242, 1, 0, 393243, 6, 0, 393244, 1, 0, 393245, 1, 0, 393246, 2, 0, 393247, 5, 0, 458752, 1, 0, 458753, 0, 0, 458754, 1, 0, 458755, 5, 0, 458756, 2, 0, 458758, 7, 0, 458759, 1, 0, 458760, 2, 0, 458761, 3, 0, 458762, 1, 0, 458763, 4, 0, 458764, 5, 0, 458765, 6, 0, 458766, 5, 0, 458767, 2, 0, 458768, 0, 0, 458769, 7, 0, 458770, 2, 0, 458771, 3, 0, 458772, 7, 0, 458773, 1, 0, 458774, 2, 0, 458775, 1, 0, 458776, 6, 0, 458777, 3, 0, 458778, 2, 0, 458779, 2, 0, 458780, 4, 0, 458781, 1, 0, 458782, 3, 0, 458783, 7, 0, 458784, 5, 0, 524288, 1, 0, 524289, 0, 0, 524290, 3, 0, 524291, 6, 0, 524292, 2, 0, 524293, 3, 0, 524294, 2, 0, 524295, 4, 0, 524296, 7, 0, 524297, 3, 0, 524298, 3, 0, 524299, 2, 0, 524300, 7, 0, 524301, 5, 0, 524302, 7, 0, 524303, 3, 0, 524304, 3, 0, 524305, 4, 0, 524306, 7, 0, 524307, 2, 0, 524309, 7, 0, 524310, 6, 0, 524311, 0, 0, 524312, 7, 0, 524313, 5, 0, 524314, 5, 0, 524315, 4, 0, 524316, 1, 0, 524317, 5, 0, 524318, 2, 0, 524319, 4, 0, 524320, 7, 0, 589824, 2, 0, 589825, 4, 0, 589826, 3, 0, 589827, 4, 0, 589828, 2, 0, 589829, 0, 0, 589830, 6, 0, 589831, 5, 0, 589832, 5, 0, 589833, 6, 0, 589834, 0, 0, 589835, 5, 0, 589836, 5, 0, 589837, 6, 0, 589838, 5, 0, 589839, 5, 0, 589840, 2, 0, 589841, 4, 0, 589842, 5, 0, 589843, 5, 0, 589844, 1, 0, 589845, 7, 0, 589846, 3, 0, 589847, 4, 0, 589848, 2, 0, 589849, 0, 0, 589850, 1, 0, 589851, 6, 0, 589852, 3, 0, 589853, 5, 0, 589854, 7, 0, 589855, 7, 0, 589856, 6, 0, 655360, 6, 0, 655361, 3, 0, 655362, 1, 0, 655363, 0, 0, 655364, 0, 0, 655365, 3, 0, 655366, 0, 0, 655367, 3, 0, 655368, 1, 0, 655369, 7, 0, 655370, 3, 0, 655372, 3, 0, 655373, 0, 0, 655375, 4, 0, 655376, 6, 0, 655377, 0, 0, 655378, 4, 0, 655379, 2, 0, 655380, 0, 0, 655381, 2, 0, 655382, 7, 0, 655383, 0, 0, 655384, 2, 0, 655385, 7, 0, 655386, 1, 0, 655387, 4, 0, 655388, 6, 0, 655389, 1, 0, 655390, 7, 0, 655391, 1, 0, 655392, 0, 0, 720896, 5, 0, 720897, 0, 0, 720898, 7, 0, 720899, 1, 0, 720900, 4, 0, 720901, 4, 0, 720902, 1, 0, 720903, 7, 0, 720904, 0, 0, 720905, 2, 0, 720906, 3, 0, 720907, 5, 0, 720908, 5, 0, 720909, 2, 0, 720910, 2, 0, 720911, 7, 0, 720912, 2, 0, 720913, 4, 0, 720914, 4, 0, 720915, 6, 0, 720916, 6, 0, 720917, 2, 0, 720918, 3, 0, 720919, 6, 0, 720920, 5, 0, 720921, 3, 0, 720922, 6, 0, 720923, 7, 0, 720924, 0, 0, 720925, 6, 0, 720926, 4, 0, 720927, 7, 0, 720928, 1, 0, 786432, 2, 0, 786433, 6, 0, 786434, 0, 0, 786435, 0, 0, 786436, 1, 0, 786437, 7, 0, 786438, 6, 0, 786439, 0, 0, 786440, 0, 0, 786441, 7, 0, 786442, 4, 0, 786443, 7, 0, 786444, 4, 0, 786445, 7, 0, 786446, 7, 0, 786447, 4, 0, 786448, 2, 0, 786449, 4, 0, 786450, 6, 0, 786451, 0, 0, 786452, 0, 0, 786453, 1, 0, 786454, 4, 0, 786455, 3, 0, 786456, 4, 0, 786457, 5, 0, 786458, 4, 0, 786459, 1, 0, 786460, 2, 0, 786461, 0, 0, 786462, 0, 0, 786463, 6, 0, 786464, 2, 0, 851968, 1, 0, 851969, 0, 0, 851970, 2, 0, 851972, 6, 0, 851973, 0, 0, 851974, 5, 0, 851975, 6, 0, 851976, 4, 0, 851977, 6, 0, 851978, 1, 0, 851979, 1, 0, 851980, 3, 0, 851981, 7, 0, 851982, 1, 0, 851983, 7, 0, 851984, 7, 0, 851985, 1, 0, 851986, 3, 0, 851987, 7, 0, 851988, 2, 0, 851989, 7, 0, 851990, 0, 0, 851991, 1, 0, 851992, 6, 0, 851993, 1, 0, 851994, 0, 0, 851995, 5, 0, 851996, 7, 0, 851997, 4, 0, 851998, 3, 0, 851999, 6, 0, 852000, 6, 0, 917504, 1, 0, 917505, 4, 0, 917506, 2, 0, 917507, 0, 0, 917508, 5, 0, 917509, 5, 0, 917510, 0, 0, 917511, 1, 0, 917512, 2, 0, 917513, 6, 0, 917514, 1, 0, 917515, 3, 0, 917516, 6, 0, 917517, 3, 0, 917518, 4, 0, 917519, 3, 0, 917520, 6, 0, 917521, 0, 0, 917522, 6, 0, 917523, 7, 0, 917524, 4, 0, 917525, 0, 0, 917526, 6, 0, 917527, 7, 0, 917528, 0, 0, 917529, 0, 0, 917530, 5, 0, 917531, 5, 0, 917532, 1, 0, 917533, 1, 0, 917534, 3, 0, 917535, 1, 0, 917536, 5, 0, 983040, 3, 0, 983041, 6, 0, 983042, 0, 0, 983043, 6, 0, 983044, 6, 0, 983045, 6, 0, 983046, 2, 0, 983047, 7, 0, 983048, 3, 0, 983049, 0, 0, 983050, 1, 0, 983051, 7, 0, 983052, 5, 0, 983053, 7, 0, 983054, 3, 0, 983055, 1, 0, 983056, 2, 0, 983057, 4, 0, 983058, 6, 0, 983059, 6, 0, 983060, 6, 0, 983061, 2, 0, 983062, 7, 0, 983063, 6, 0, 983064, 3, 0, 983065, 6, 0, 983066, 0, 0, 983067, 3, 0, 983068, 2, 0, 983069, 7, 0, 983070, 0, 0, 983071, 5, 0, 1048576, 2, 0, 1048577, 3, 0, 1048578, 4, 0, 1048579, 7, 0, 1048580, 6, 0, 1048581, 3, 0, 1048582, 0, 0, 1048583, 4, 0, 1048584, 1, 0, 1048585, 5, 0, 1048586, 2, 0, 1048587, 5, 0, 1048588, 4, 0, 1048589, 7, 0, 1048590, 4, 0, 1048591, 2, 0, 1048592, 1, 0, 1048593, 3, 0, 1048594, 1, 0, 1048595, 7, 0, 1048596, 0, 0, 1048597, 6, 0, 1048598, 6, 0, 1048599, 4, 0, 1048600, 6, 0, 1048601, 7, 0, 1048602, 0, 0, 1048603, 6, 0, 1048604, 0, 0, 1048605, 0, 0, 1048606, 7, 0, 1048607, 5, 0, 1114112, 3, 0, 1114113, 2, 0, 1114114, 1, 0, 1114115, 0, 0, 1114116, 6, 0, 1114117, 3, 0, 1114118, 3, 0, 1114119, 4, 0, 1114120, 4, 0, 1114121, 6, 0, 1114122, 6, 0, 1114123, 7, 0, 1114124, 6, 0, 1114125, 5, 0, 1114126, 3, 0, 1114127, 7, 0, 1114128, 4, 0, 1114129, 6, 0, 1114130, 3, 0, 1114131, 2, 0, 1114132, 7, 0, 1114133, 4, 0, 1114134, 3, 0, 1114135, 5, 0, 1114136, 0, 0, 1114137, 4, 0, 1114138, 3, 0, 1114139, 0, 0, 1114140, 6, 0, 1114141, 0, 0, 1114142, 1, 0, 1114143, 1, 0, 1179648, 4, 0, 1179649, 0, 0, 1179650, 4, 0, 1179651, 1, 0, 1179652, 6, 0, 1179653, 0, 0, 1179654, 6, 0, 1179655, 7, 0, 1179656, 6, 0, 1179657, 6, 0, 1179658, 6, 0, 1179659, 4, 0, 1179660, 1, 0, 1179661, 2, 0, 1179662, 2, 0, 1179663, 4, 0, 1179664, 7, 0, 1179665, 4, 0, 1179666, 3, 0, 1179667, 6, 0, 1179668, 5, 0, 1179669, 1, 0, 1179670, 1, 0, 1179671, 7, 0, 1179672, 4, 0, 1179673, 0, 0, 1179674, 1, 0, 1179675, 4, 0, 1179676, 1, 0, 1179677, 6, 0, 1179678, 7, 0, 1179679, 3, 0, 1245185, 1, 0 )

[node name="Boss" type="Node2D" parent="."]

[node name="Player" type="KinematicBody2D" parent="."]
position = Vector2( 500, 250 )
script = ExtResource( 1 )

[node name="CollisionShape2D" type="CollisionShape2D" parent="Player"]
shape = SubResource( 2 )

[node name="Sprite" type="Sprite" parent="Player"]
texture = ExtResource( 3 )
